%!PS-Adobe-3.0 
%%Creator: MATLAB, The MathWorks, Inc. Version 7.14.0.739 (R2012a). Operating System: Microsoft Windows 7.
%%Title: data_figures\main_results\eval_error.eps
%%CreationDate: 07/18/2014  23:53:25
%%DocumentNeededFonts: Helvetica
%%DocumentProcessColors: Cyan Magenta Yellow Black
%%LanguageLevel: 2
%%Pages: (atend)
%%BoundingBox: (atend)
%%EndComments

%%BeginProlog
% MathWorks dictionary
/MathWorks 160 dict begin
% definition operators
/bdef {bind def} bind def
/ldef {load def} bind def
/xdef {exch def} bdef
/xstore {exch store} bdef
% operator abbreviations
/c  /clip ldef
/cc /concat ldef
/cp /closepath ldef
/gr /grestore ldef
/gs /gsave ldef
/mt /moveto ldef
/np /newpath ldef
/cm /currentmatrix ldef
/sm /setmatrix ldef
/rm /rmoveto ldef
/rl /rlineto ldef
/s {show newpath} bdef
/sc {setcmykcolor} bdef
/sr /setrgbcolor ldef
/sg /setgray ldef
/w /setlinewidth ldef
/j /setlinejoin ldef
/cap /setlinecap ldef
/rc {rectclip} bdef
/rf {rectfill} bdef
% page state control
/pgsv () def
/bpage {/pgsv save def} bdef
/epage {pgsv restore} bdef
/bplot /gsave ldef
/eplot {stroke grestore} bdef
% orientation switch
/portraitMode 0 def /landscapeMode 1 def /rotateMode 2 def
% coordinate system mappings
/dpi2point 0 def
% font control
/FontSize 0 def
/FMS {/FontSize xstore findfont [FontSize 0 0 FontSize neg 0 0]
  makefont setfont} bdef
/ISOLatin1Encoding where {pop /WindowsLatin1Encoding 256 array bdef
ISOLatin1Encoding WindowsLatin1Encoding copy pop
/.notdef/.notdef/quotesinglbase/florin/quotedblbase/ellipsis/dagger
/daggerdbl/circumflex/perthousand/Scaron/guilsinglleft/OE/.notdef/.notdef
/.notdef/.notdef/quoteleft/quoteright/quotedblleft/quotedblright/bullet
/endash/emdash/tilde/trademark/scaron/guilsinglright/oe/.notdef/.notdef
/Ydieresis WindowsLatin1Encoding 128 32 getinterval astore pop}
{/WindowsLatin1Encoding StandardEncoding bdef} ifelse
/reencode {exch dup where {pop load} {pop StandardEncoding} ifelse
  exch dup 3 1 roll findfont dup length dict begin
  { 1 index /FID ne {def}{pop pop} ifelse } forall
  /Encoding exch def currentdict end definefont pop} bdef
/isroman {findfont /CharStrings get /Agrave known} bdef
/FMSR {3 1 roll 1 index dup isroman {reencode} {pop pop} ifelse
  exch FMS} bdef
/csm {1 dpi2point div -1 dpi2point div scale neg translate
 dup landscapeMode eq {pop -90 rotate}
  {rotateMode eq {90 rotate} if} ifelse} bdef
% line types: solid, dotted, dashed, dotdash
/SO { [] 0 setdash } bdef
/DO { [.5 dpi2point mul 4 dpi2point mul] 0 setdash } bdef
/DA { [6 dpi2point mul] 0 setdash } bdef
/DD { [.5 dpi2point mul 4 dpi2point mul 6 dpi2point mul 4
  dpi2point mul] 0 setdash } bdef
% macros for lines and objects
/L {lineto stroke} bdef
/MP {3 1 roll moveto 1 sub {rlineto} repeat} bdef
/AP {{rlineto} repeat} bdef
/PDlw -1 def
/W {/PDlw currentlinewidth def setlinewidth} def
/PP {closepath eofill} bdef
/DP {closepath stroke} bdef
/MR {4 -2 roll moveto dup  0 exch rlineto exch 0 rlineto
  neg 0 exch rlineto closepath} bdef
/FR {MR stroke} bdef
/PR {MR fill} bdef
/L1i {{currentfile picstr readhexstring pop} image} bdef
/tMatrix matrix def
/MakeOval {newpath tMatrix currentmatrix pop translate scale
0 0 1 0 360 arc tMatrix setmatrix} bdef
/FO {MakeOval stroke} bdef
/PO {MakeOval fill} bdef
/PD {currentlinewidth 2 div 0 360 arc fill
   PDlw -1 eq not {PDlw w /PDlw -1 def} if} def
/FA {newpath tMatrix currentmatrix pop translate scale
  0 0 1 5 -2 roll arc tMatrix setmatrix stroke} bdef
/PA {newpath tMatrix currentmatrix pop	translate 0 0 moveto scale
  0 0 1 5 -2 roll arc closepath tMatrix setmatrix fill} bdef
/FAn {newpath tMatrix currentmatrix pop translate scale
  0 0 1 5 -2 roll arcn tMatrix setmatrix stroke} bdef
/PAn {newpath tMatrix currentmatrix pop translate 0 0 moveto scale
  0 0 1 5 -2 roll arcn closepath tMatrix setmatrix fill} bdef
/vradius 0 def /hradius 0 def /lry 0 def
/lrx 0 def /uly 0 def /ulx 0 def /rad 0 def
/MRR {/vradius xdef /hradius xdef /lry xdef /lrx xdef /uly xdef
  /ulx xdef newpath tMatrix currentmatrix pop ulx hradius add uly
  vradius add translate hradius vradius scale 0 0 1 180 270 arc 
  tMatrix setmatrix lrx hradius sub uly vradius add translate
  hradius vradius scale 0 0 1 270 360 arc tMatrix setmatrix
  lrx hradius sub lry vradius sub translate hradius vradius scale
  0 0 1 0 90 arc tMatrix setmatrix ulx hradius add lry vradius sub
  translate hradius vradius scale 0 0 1 90 180 arc tMatrix setmatrix
  closepath} bdef
/FRR {MRR stroke } bdef
/PRR {MRR fill } bdef
/MlrRR {/lry xdef /lrx xdef /uly xdef /ulx xdef /rad lry uly sub 2 div def
  newpath tMatrix currentmatrix pop ulx rad add uly rad add translate
  rad rad scale 0 0 1 90 270 arc tMatrix setmatrix lrx rad sub lry rad
  sub translate rad rad scale 0 0 1 270 90 arc tMatrix setmatrix
  closepath} bdef
/FlrRR {MlrRR stroke } bdef
/PlrRR {MlrRR fill } bdef
/MtbRR {/lry xdef /lrx xdef /uly xdef /ulx xdef /rad lrx ulx sub 2 div def
  newpath tMatrix currentmatrix pop ulx rad add uly rad add translate
  rad rad scale 0 0 1 180 360 arc tMatrix setmatrix lrx rad sub lry rad
  sub translate rad rad scale 0 0 1 0 180 arc tMatrix setmatrix
  closepath} bdef
/FtbRR {MtbRR stroke } bdef
/PtbRR {MtbRR fill } bdef
/stri 6 array def /dtri 6 array def
/smat 6 array def /dmat 6 array def
/tmat1 6 array def /tmat2 6 array def /dif 3 array def
/asub {/ind2 exch def /ind1 exch def dup dup
  ind1 get exch ind2 get sub exch } bdef
/tri_to_matrix {
  2 0 asub 3 1 asub 4 0 asub 5 1 asub
  dup 0 get exch 1 get 7 -1 roll astore } bdef
/compute_transform {
  dmat dtri tri_to_matrix tmat1 invertmatrix 
  smat stri tri_to_matrix tmat2 concatmatrix } bdef
/ds {stri astore pop} bdef
/dt {dtri astore pop} bdef
/db {2 copy /cols xdef /rows xdef mul dup 3 mul string
  currentfile 
  3 index 0 eq {/ASCIIHexDecode filter}
  {/ASCII85Decode filter 3 index 2 eq {/RunLengthDecode filter} if }
  ifelse exch readstring pop
  dup 0 3 index getinterval /rbmap xdef
  dup 2 index dup getinterval /gbmap xdef
  1 index dup 2 mul exch getinterval /bbmap xdef pop pop}bdef
/it {gs np dtri aload pop moveto lineto lineto cp c
  cols rows 8 compute_transform 
  rbmap gbmap bbmap true 3 colorimage gr}bdef
/il {newpath moveto lineto stroke}bdef
currentdict end def
%%EndProlog

%%BeginSetup
MathWorks begin

0 cap

end
%%EndSetup

%%Page: 1 1
%%BeginPageSetup
%%PageBoundingBox:    54   199   548   602
MathWorks begin
bpage
%%EndPageSetup

%%BeginObject: obj1
bplot

/dpi2point 12 def
portraitMode 0204 7344 csm

  446   110  5927  4844 rc
89 dict begin %Colortable dictionary
/c0 { 0.000000 0.000000 0.000000 sr} bdef
/c1 { 1.000000 1.000000 1.000000 sr} bdef
/c2 { 0.900000 0.000000 0.000000 sr} bdef
/c3 { 0.000000 0.820000 0.000000 sr} bdef
/c4 { 0.000000 0.000000 0.800000 sr} bdef
/c5 { 0.910000 0.820000 0.320000 sr} bdef
/c6 { 1.000000 0.260000 0.820000 sr} bdef
/c7 { 0.000000 0.820000 0.820000 sr} bdef
c0
1 j
1 sg
   0    0 6913 5185 rf
6 w
0 4225 5356 0 0 -4225 899 4614 4 MP
PP
-5356 0 0 4225 5356 0 0 -4225 899 4614 5 MP stroke
4 w
DO
SO
6 w
0 sg
 899  389 mt 6255  389 L
 899 4614 mt 6255 4614 L
6255 4614 mt 6255  389 L
 899 4614 mt  899  389 L
 899 4614 mt 6255 4614 L
 899 4614 mt  899  389 L
 899 4614 mt  899 4560 L
 899  389 mt  899  442 L
%%IncludeResource: font Helvetica
/Helvetica /WindowsLatin1Encoding 120 FMSR

 866 4759 mt 
(1) s
2238 4614 mt 2238 4560 L
2238  389 mt 2238  442 L
2205 4759 mt 
(2) s
3577 4614 mt 3577 4560 L
3577  389 mt 3577  442 L
3544 4759 mt 
(3) s
4916 4614 mt 4916 4560 L
4916  389 mt 4916  442 L
4883 4759 mt 
(4) s
6255 4614 mt 6255 4560 L
6255  389 mt 6255  442 L
6222 4759 mt 
(5) s
 899 4614 mt  952 4614 L
6255 4614 mt 6201 4614 L
 731 4658 mt 
(20) s
 899 4085 mt  952 4085 L
6255 4085 mt 6201 4085 L
 731 4129 mt 
(40) s
 899 3557 mt  952 3557 L
6255 3557 mt 6201 3557 L
 731 3601 mt 
(60) s
 899 3029 mt  952 3029 L
6255 3029 mt 6201 3029 L
 731 3073 mt 
(80) s
 899 2501 mt  952 2501 L
6255 2501 mt 6201 2501 L
 664 2545 mt 
(100) s
 899 1973 mt  952 1973 L
6255 1973 mt 6201 1973 L
 664 2017 mt 
(120) s
 899 1445 mt  952 1445 L
6255 1445 mt 6201 1445 L
 664 1489 mt 
(140) s
 899  917 mt  952  917 L
6255  917 mt 6201  917 L
 664  961 mt 
(160) s
 899  389 mt  952  389 L
6255  389 mt 6201  389 L
 664  433 mt 
(180) s
 899  389 mt 6255  389 L
 899 4614 mt 6255 4614 L
6255 4614 mt 6255  389 L
 899 4614 mt  899  389 L
gs 899 389 5357 4226 rc
/c8 { 0.000000 0.000000 1.000000 sr} bdef
c8
1339 106 1339 -65 1339 3812 1339 -3171 899 3721 5 MP stroke
/c9 { 1.000000 0.000000 0.000000 sr} bdef
c9
1339 57 1339 -32 1339 553 1339 88 899 3721 5 MP stroke
/c10 { 0.000000 1.000000 0.000000 sr} bdef
c10
1339 88 1339 66 1339 322 1339 -197 899 3977 5 MP stroke
/c11 { 1.000000 1.000000 0.000000 sr} bdef
c11
1339 60 1339 -65 1339 553 1339 88 899 3721 5 MP stroke
/c12 { 0.000000 1.000000 1.000000 sr} bdef
c12
1339 57 1339 -32 1339 3812 1339 -3171 899 3721 5 MP stroke
gr

c12
gs 826 477 5503 3959 rc
/c13 { 1.000000 0.000000 1.000000 sr} bdef
c13
 863 3721 mt  935 3721 L
 899 3685 mt  899 3757 L
2202  550 mt 2274  550 L
2238  514 mt 2238  586 L
3541 4362 mt 3613 4362 L
3577 4326 mt 3577 4398 L
4880 4297 mt 4952 4297 L
4916 4261 mt 4916 4333 L
6219 4357 mt 6291 4357 L
6255 4321 mt 6255 4393 L
 874 3696 mt  924 3746 L
 924 3696 mt  874 3746 L
2213  525 mt 2263  575 L
2263  525 mt 2213  575 L
3552 4337 mt 3602 4387 L
3602 4337 mt 3552 4387 L
4891 4272 mt 4941 4322 L
4941 4272 mt 4891 4322 L
6230 4332 mt 6280 4382 L
6280 4332 mt 6230 4382 L
gr

c13
gs 899 389 5357 4226 rc
0 sg
1339 45 1339 66 1339 322 1339 -197 899 3977 5 MP stroke
DA
1339 40 1339 188 1339 322 1339 -197 899 3977 5 MP stroke
gr

0 sg
DA
3429 4902 mt 
(stage) s
 582 2905 mt  -90 rotate
(prediction error) s
90 rotate
3173  294 mt 
(prediction error) s
 882 4657 mt 
( ) s
6239  431 mt 
( ) s
SO
1 sg
0 1246 1772 0 0 -1246 4423 1695 4 MP
PP
-1772 0 0 1246 1772 0 0 -1246 4423 1695 5 MP stroke
4 w
DO
SO
6 w
0 sg
4423  449 mt 6195  449 L
4423 1695 mt 6195 1695 L
6195 1695 mt 6195  449 L
4423 1695 mt 4423  449 L
4423 1695 mt 6195 1695 L
4423 1695 mt 4423  449 L
4423  449 mt 6195  449 L
4423 1695 mt 6195 1695 L
6195 1695 mt 6195  449 L
4423 1695 mt 4423  449 L
4896  584 mt 
(maximin) s
gs 4423 449 1773 1247 rc
c8
364 0 4495 542 2 MP stroke
gr

c8
0 sg
4896  733 mt 
(MI) s
gs 4423 449 1773 1247 rc
c9
364 0 4495 691 2 MP stroke
gr

c9
0 sg
4896  883 mt 
(ME) s
gs 4423 449 1773 1247 rc
c10
364 0 4495 840 2 MP stroke
gr

c10
0 sg
4896 1037 mt 
(hybrid: ) s
%%IncludeResource: font Symbol
/Symbol /WindowsLatin1Encoding 120 FMSR

5281 1037 mt 
(a) s
%%IncludeResource: font Helvetica
/Helvetica /WindowsLatin1Encoding 120 FMSR

5356 1037 mt 
( = 1) s
gs 4423 449 1773 1247 rc
c11
364 0 4495 993 2 MP stroke
gr

c11
0 sg
4896 1189 mt 
(hybrid: segmentation) s
gs 4423 449 1773 1247 rc
c12
364 0 4495 1146 2 MP stroke
gr

c12
0 sg
4896 1343 mt 
(hybrid: ) s
%%IncludeResource: font Symbol
/Symbol /WindowsLatin1Encoding 120 FMSR

5281 1343 mt 
(a) s
%%IncludeResource: font Helvetica
/Helvetica /WindowsLatin1Encoding 120 FMSR

5356 1343 mt 
( decreases) s
gs 4423 449 1773 1247 rc
gs 4604 1226 147 147 rc
c13
4641 1299 mt 4713 1299 L
4677 1263 mt 4677 1335 L
4652 1274 mt 4702 1324 L
4702 1274 mt 4652 1324 L
gr

c13
gr

c13
0 sg
4896 1496 mt 
(hybrid: adaptive entropy) s
gs 4423 449 1773 1247 rc
364 0 4495 1452 2 MP stroke
gr

4896 1645 mt 
(hybrid: adaptive KL) s
gs 4423 449 1773 1247 rc
DA
364 0 4495 1601 2 MP stroke
SO
gr


end %%Color Dict

eplot
%%EndObject

epage
end

showpage

%%Trailer
%%BoundingBox:    54   199   548   602
%%Pages: 001
%%EOF
