%!PS-Adobe-3.0 
%%Creator: MATLAB, The MathWorks, Inc. Version 8.1.0.604 (R2013a). Operating System: Linux 3.13.0-40-generic #69-Ubuntu SMP Thu Nov 13 17:53:56 UTC 2014 x86_64.
%%Title: data_figures/main_results/average_area_metric.eps
%%CreationDate: 03/02/2015  23:35:13
%%DocumentNeededFonts: Helvetica
%%DocumentProcessColors: Cyan Magenta Yellow Black
%%LanguageLevel: 2
%%Pages: (atend)
%%BoundingBox: (atend)
%%EndComments

%%BeginProlog
% MathWorks dictionary
/MathWorks 160 dict begin
% definition operators
/bdef {bind def} bind def
/ldef {load def} bind def
/xdef {exch def} bdef
/xstore {exch store} bdef
% operator abbreviations
/c  /clip ldef
/cc /concat ldef
/cp /closepath ldef
/gr /grestore ldef
/gs /gsave ldef
/mt /moveto ldef
/np /newpath ldef
/cm /currentmatrix ldef
/sm /setmatrix ldef
/rm /rmoveto ldef
/rl /rlineto ldef
/s {show newpath} bdef
/sc {setcmykcolor} bdef
/sr /setrgbcolor ldef
/sg /setgray ldef
/w /setlinewidth ldef
/j /setlinejoin ldef
/cap /setlinecap ldef
/rc {rectclip} bdef
/rf {rectfill} bdef
% page state control
/pgsv () def
/bpage {/pgsv save def} bdef
/epage {pgsv restore} bdef
/bplot /gsave ldef
/eplot {stroke grestore} bdef
% orientation switch
/portraitMode 0 def /landscapeMode 1 def /rotateMode 2 def
% coordinate system mappings
/dpi2point 0 def
% font control
/FontSize 0 def
/FMS {/FontSize xstore findfont [FontSize 0 0 FontSize neg 0 0]
  makefont setfont} bdef
/reencode {exch dup where {pop load} {pop StandardEncoding} ifelse
  exch dup 3 1 roll findfont dup length dict begin
  { 1 index /FID ne {def}{pop pop} ifelse } forall
  /Encoding exch def currentdict end definefont pop} bdef
/isroman {findfont /CharStrings get /Agrave known} bdef
/FMSR {3 1 roll 1 index dup isroman {reencode} {pop pop} ifelse
  exch FMS} bdef
/csm {1 dpi2point div -1 dpi2point div scale neg translate
 dup landscapeMode eq {pop -90 rotate}
  {rotateMode eq {90 rotate} if} ifelse} bdef
% line types: solid, dotted, dashed, dotdash
/SO { [] 0 setdash } bdef
/DO { [.5 dpi2point mul 4 dpi2point mul] 0 setdash } bdef
/DA { [6 dpi2point mul] 0 setdash } bdef
/DD { [.5 dpi2point mul 4 dpi2point mul 6 dpi2point mul 4
  dpi2point mul] 0 setdash } bdef
% macros for lines and objects
/L {lineto stroke} bdef
/MP {3 1 roll moveto 1 sub {rlineto} repeat} bdef
/AP {{rlineto} repeat} bdef
/PDlw -1 def
/W {/PDlw currentlinewidth def setlinewidth} def
/PP {closepath eofill} bdef
/DP {closepath stroke} bdef
/MR {4 -2 roll moveto dup  0 exch rlineto exch 0 rlineto
  neg 0 exch rlineto closepath} bdef
/FR {MR stroke} bdef
/PR {MR fill} bdef
/L1i {{currentfile picstr readhexstring pop} image} bdef
/tMatrix matrix def
/MakeOval {newpath tMatrix currentmatrix pop translate scale
0 0 1 0 360 arc tMatrix setmatrix} bdef
/FO {MakeOval stroke} bdef
/PO {MakeOval fill} bdef
/PD {currentlinewidth 2 div 0 360 arc fill
   PDlw -1 eq not {PDlw w /PDlw -1 def} if} def
/FA {newpath tMatrix currentmatrix pop translate scale
  0 0 1 5 -2 roll arc tMatrix setmatrix stroke} bdef
/PA {newpath tMatrix currentmatrix pop	translate 0 0 moveto scale
  0 0 1 5 -2 roll arc closepath tMatrix setmatrix fill} bdef
/FAn {newpath tMatrix currentmatrix pop translate scale
  0 0 1 5 -2 roll arcn tMatrix setmatrix stroke} bdef
/PAn {newpath tMatrix currentmatrix pop translate 0 0 moveto scale
  0 0 1 5 -2 roll arcn closepath tMatrix setmatrix fill} bdef
/vradius 0 def /hradius 0 def /lry 0 def
/lrx 0 def /uly 0 def /ulx 0 def /rad 0 def
/MRR {/vradius xdef /hradius xdef /lry xdef /lrx xdef /uly xdef
  /ulx xdef newpath tMatrix currentmatrix pop ulx hradius add uly
  vradius add translate hradius vradius scale 0 0 1 180 270 arc 
  tMatrix setmatrix lrx hradius sub uly vradius add translate
  hradius vradius scale 0 0 1 270 360 arc tMatrix setmatrix
  lrx hradius sub lry vradius sub translate hradius vradius scale
  0 0 1 0 90 arc tMatrix setmatrix ulx hradius add lry vradius sub
  translate hradius vradius scale 0 0 1 90 180 arc tMatrix setmatrix
  closepath} bdef
/FRR {MRR stroke } bdef
/PRR {MRR fill } bdef
/MlrRR {/lry xdef /lrx xdef /uly xdef /ulx xdef /rad lry uly sub 2 div def
  newpath tMatrix currentmatrix pop ulx rad add uly rad add translate
  rad rad scale 0 0 1 90 270 arc tMatrix setmatrix lrx rad sub lry rad
  sub translate rad rad scale 0 0 1 270 90 arc tMatrix setmatrix
  closepath} bdef
/FlrRR {MlrRR stroke } bdef
/PlrRR {MlrRR fill } bdef
/MtbRR {/lry xdef /lrx xdef /uly xdef /ulx xdef /rad lrx ulx sub 2 div def
  newpath tMatrix currentmatrix pop ulx rad add uly rad add translate
  rad rad scale 0 0 1 180 360 arc tMatrix setmatrix lrx rad sub lry rad
  sub translate rad rad scale 0 0 1 0 180 arc tMatrix setmatrix
  closepath} bdef
/FtbRR {MtbRR stroke } bdef
/PtbRR {MtbRR fill } bdef
/stri 6 array def /dtri 6 array def
/smat 6 array def /dmat 6 array def
/tmat1 6 array def /tmat2 6 array def /dif 3 array def
/asub {/ind2 exch def /ind1 exch def dup dup
  ind1 get exch ind2 get sub exch } bdef
/tri_to_matrix {
  2 0 asub 3 1 asub 4 0 asub 5 1 asub
  dup 0 get exch 1 get 7 -1 roll astore } bdef
/compute_transform {
  dmat dtri tri_to_matrix tmat1 invertmatrix 
  smat stri tri_to_matrix tmat2 concatmatrix } bdef
/ds {stri astore pop} bdef
/dt {dtri astore pop} bdef
/db {2 copy /cols xdef /rows xdef mul dup 3 mul string
  currentfile 
  3 index 0 eq {/ASCIIHexDecode filter}
  {/ASCII85Decode filter 3 index 2 eq {/RunLengthDecode filter} if }
  ifelse exch readstring pop
  dup 0 3 index getinterval /rbmap xdef
  dup 2 index dup getinterval /gbmap xdef
  1 index dup 2 mul exch getinterval /bbmap xdef pop pop}bdef
/it {gs np dtri aload pop moveto lineto lineto cp c
  cols rows 8 compute_transform 
  rbmap gbmap bbmap true 3 colorimage gr}bdef
/il {newpath moveto lineto stroke}bdef
currentdict end def
%%EndProlog

%%BeginSetup
MathWorks begin

0 cap

end
%%EndSetup

%%Page: 1 1
%%BeginPageSetup
%%PageBoundingBox:    58   199   549   602
MathWorks begin
bpage
%%EndPageSetup

%%BeginObject: obj1
bplot

/dpi2point 12 def
portraitMode 0216 7344 csm

  480   110  5893  4845 rc
88 dict begin %Colortable dictionary
/c0 { 0.000000 0.000000 0.000000 sr} bdef
/c1 { 1.000000 1.000000 1.000000 sr} bdef
/c2 { 0.900000 0.000000 0.000000 sr} bdef
/c3 { 0.000000 0.820000 0.000000 sr} bdef
/c4 { 0.000000 0.000000 0.800000 sr} bdef
/c5 { 0.910000 0.820000 0.320000 sr} bdef
/c6 { 1.000000 0.260000 0.820000 sr} bdef
/c7 { 0.000000 0.820000 0.820000 sr} bdef
c0
1 j
1 sg
   0    0 6913 5186 rf
6 w
0 4226 5356 0 0 -4226 899 4615 4 MP
PP
-5356 0 0 4226 5356 0 0 -4226 899 4615 5 MP stroke
4 w
DO
SO
6 w
0 sg
 899 4615 mt 6255 4615 L
 899  389 mt 6255  389 L
 899 4615 mt  899  389 L
6255 4615 mt 6255  389 L
 899 4615 mt 6255 4615 L
 899 4615 mt  899  389 L
 899 4615 mt  899 4561 L
 899  389 mt  899  442 L
%%IncludeResource: font Helvetica
/Helvetica /ISOLatin1Encoding 120 FMSR

 866 4760 mt 
(1) s
6255 4615 mt 6255 4561 L
6255  389 mt 6255  442 L
6222 4760 mt 
(2) s
 899 4615 mt  952 4615 L
6255 4615 mt 6201 4615 L
 798 4659 mt 
(2) s
 899 3910 mt  952 3910 L
6255 3910 mt 6201 3910 L
 698 3954 mt 
(2.5) s
 899 3206 mt  952 3206 L
6255 3206 mt 6201 3206 L
 798 3250 mt 
(3) s
 899 2502 mt  952 2502 L
6255 2502 mt 6201 2502 L
 698 2546 mt 
(3.5) s
 899 1797 mt  952 1797 L
6255 1797 mt 6201 1797 L
 798 1841 mt 
(4) s
 899 1093 mt  952 1093 L
6255 1093 mt 6201 1093 L
 698 1137 mt 
(4.5) s
 899  389 mt  952  389 L
6255  389 mt 6201  389 L
 798  433 mt 
(5) s
 899 4615 mt 6255 4615 L
 899  389 mt 6255  389 L
 899 4615 mt  899  389 L
6255 4615 mt 6255  389 L
gs 899 389 5357 4227 rc
/c8 { 0.000000 0.000000 1.000000 sr} bdef
c8
5356 2767 899 1283 2 MP stroke
/c9 { 1.000000 0.000000 0.000000 sr} bdef
c9
5356 236 899 1933 2 MP stroke
/c10 { 1.000000 1.000000 0.000000 sr} bdef
c10
5356 2362 899 1791 2 MP stroke
/c11 { 0.000000 1.000000 1.000000 sr} bdef
c11
5356 2820 899 1271 2 MP stroke
gr

c11
gs 826 967 5503 3064 rc
/c12 { 1.000000 0.000000 1.000000 sr} bdef
c12
 863 1040 mt  935 1040 L
 899 1004 mt  899 1076 L
6219 3957 mt 6291 3957 L
6255 3921 mt 6255 3993 L
 874 1015 mt  924 1065 L
 924 1015 mt  874 1065 L
6230 3932 mt 6280 3982 L
6280 3932 mt 6230 3982 L
gr

c12
gs 899 389 5357 4227 rc
0 sg
5356 761 899 1864 2 MP stroke
DA
c8
5356 2867 899 1635 2 MP stroke
gr

c8
DA
0 sg
3429 4903 mt 
(stage) s
 616 3034 mt  -90 rotate
(average area metric) s
90 rotate
3045  294 mt 
(average area metric) s
 882 4658 mt 
( ) s
6239  431 mt 
( ) s
SO
1 sg
0 1100 1772 0 0 -1100 4423 1549 4 MP
PP
-1772 0 0 1100 1772 0 0 -1100 4423 1549 5 MP stroke
4 w
DO
SO
6 w
0 sg
4423 1549 mt 6195 1549 L
4423  449 mt 6195  449 L
4423 1549 mt 4423  449 L
6195 1549 mt 6195  449 L
4423 1549 mt 6195 1549 L
4423 1549 mt 4423  449 L
4423 1549 mt 6195 1549 L
4423  449 mt 6195  449 L
4423 1549 mt 4423  449 L
6195 1549 mt 6195  449 L
4858  588 mt 
(maximin) s
gs 4423 449 1773 1101 rc
c8
335 0 4489 545 2 MP stroke
gr

c8
0 sg
4858  739 mt 
(MI) s
gs 4423 449 1773 1101 rc
c9
335 0 4489 696 2 MP stroke
gr

c9
0 sg
4858  891 mt 
(hybrid: ) s
%%IncludeResource: font Symbol
/Symbol /ISOLatin1Encoding 120 FMSR

5243  891 mt 
(a) s
%%IncludeResource: font Helvetica
/Helvetica /ISOLatin1Encoding 120 FMSR

5318  891 mt 
( = 1) s
gs 4423 449 1773 1101 rc
c10
335 0 4489 847 2 MP stroke
gr

c10
0 sg
4858 1042 mt 
(hybrid: segmentation) s
gs 4423 449 1773 1101 rc
c11
335 0 4489 999 2 MP stroke
gr

c11
0 sg
4858 1194 mt 
(hybrid: ) s
%%IncludeResource: font Symbol
/Symbol /ISOLatin1Encoding 120 FMSR

5243 1194 mt 
(a) s
%%IncludeResource: font Helvetica
/Helvetica /ISOLatin1Encoding 120 FMSR

5318 1194 mt 
( decreases) s
gs 4423 449 1773 1101 rc
gs 4584 1077 147 147 rc
c12
4621 1150 mt 4693 1150 L
4657 1114 mt 4657 1186 L
4632 1125 mt 4682 1175 L
4682 1125 mt 4632 1175 L
gr

c12
gr

c12
0 sg
4858 1344 mt 
(hybrid: adaptive entropy) s
gs 4423 449 1773 1101 rc
335 0 4489 1301 2 MP stroke
gr

4858 1495 mt 
(hybrid: adaptive KL) s
gs 4423 449 1773 1101 rc
DA
c8
335 0 4489 1452 2 MP stroke
SO
gr

c8

end %%Color Dict

eplot
%%EndObject

epage
end

showpage

%%Trailer
%%BoundingBox:    58   199   549   602
%%Pages: 001
%%EOF
